<svg xmlns="http://www.w3.org/2000/svg" xmlns:xlink="http://www.w3.org/1999/xlink" width="125" height="20" viewBox="0 0 125 20">
    <defs>
        <path id="a" d="M59.036.057H.014v19.93h118.044V.057z"/>
    </defs>
    <g fill="none" fill-rule="evenodd">
        <g>
            <mask id="b" fill="#fff">
                <use xlink:href="#a"/>
            </mask>
            <path fill="#001F5B" d="M34.211.057H16.995v4.581h9.2L17.123 20h17.088v-4.387h-9.226L34.211.057" mask="url(#b)"/>
            <path fill="#0082CA" d="M64.186.057L57.772 20H53.68L49.587 7.36 45.514 20H41.42L34.968.057h4.702l3.807 12.539 3.73-12.54h4.721l3.807 12.54 3.73-12.54h4.721M113.477 13.718c0 1.263-.433 1.895-1.3 1.895h-7.65V4.61h4.878v-.003l2.879.012c.795 0 1.193.49 1.193 1.47v7.629zm3.366-12.695c-.724-.644-1.846-.966-3.366-.966h-13.53V20h13.53c1.35 0 2.45-.453 3.303-1.36.852-.908 1.278-2.152 1.278-3.734V4.594c0-1.67-.405-2.86-1.215-3.57zM15.341 12.422h4.504V7.619H15.34zM80.99 4.594V.057H64.647V20H80.99v-4.537H69.228v-3.041h9.128V7.619h-9.128V4.594H80.99M87.122 15.463V.057H82.54V20h16.32v-4.537h-11.74" mask="url(#b)"/>
            <path fill="#001F5B" d="M15.101 4.616h.24V.056H0V20h15.341v-4.537H4.581v-3.041h7.858V7.685H4.58V4.616h10.52" mask="url(#b)"/>
        </g>
        <path fill="#0E2B63" d="M123.099 2.099c-.11-.061-.287-.092-.53-.092h-.375v.896h.396c.185 0 .324-.018.417-.055.171-.068.257-.196.257-.387 0-.18-.055-.3-.165-.362zm-.473-.39c.308 0 .534.03.679.089.256.106.384.316.384.627 0 .221-.08.384-.242.489a.95.95 0 0 1-.36.12c.196.03.338.11.427.242.09.13.135.258.135.383v.181c0 .057.003.119.007.184.004.066.01.109.02.129l.017.03h-.41l-.007-.024-.006-.028-.01-.079v-.196c0-.286-.077-.474-.233-.566-.093-.053-.255-.08-.487-.08h-.346v.974h-.437V1.709h.87zm-1.332-.126a1.87 1.87 0 0 0-.567 1.373c0 .54.188 1 .564 1.381.379.381.837.571 1.378.571.54 0 1-.19 1.378-.57a1.89 1.89 0 0 0 .568-1.382c0-.537-.19-.994-.568-1.373-.38-.38-.84-.571-1.378-.571-.536 0-.994.19-1.375.57zm2.978 2.969a2.182 2.182 0 0 1-1.603.663c-.627 0-1.16-.22-1.6-.663a2.184 2.184 0 0 1-.657-1.6c0-.62.221-1.15.663-1.59.44-.438.971-.657 1.594-.657.627 0 1.162.219 1.603.657.442.438.663.968.663 1.59a2.18 2.18 0 0 1-.663 1.6z"/>
    </g>
</svg>
